{
  "dependencies": {
    "secrets1": {
      "type": "secrets.user"
    },
    "mssql1": {
      "type": "mssql.local",
      "connectionId": "ShopDbContext",
      "secretStore": "LocalSecretsFile"
    }
  }
}